<?xml version="1.0" encoding="UTF-8" standalone="no"?>
<!-- Created with Inkscape (http://www.inkscape.org/) -->

<svg
   xmlns:dc="http://purl.org/dc/elements/1.1/"
   xmlns:cc="http://creativecommons.org/ns#"
   xmlns:rdf="http://www.w3.org/1999/02/22-rdf-syntax-ns#"
   xmlns:svg="http://www.w3.org/2000/svg"
   xmlns="http://www.w3.org/2000/svg"
   xmlns:sodipodi="http://sodipodi.sourceforge.net/DTD/sodipodi-0.dtd"
   xmlns:inkscape="http://www.inkscape.org/namespaces/inkscape"
   width="3.25in"
   height="1.75in"
   viewBox="0 0 82.550001 44.45"
   version="1.1"
   id="svg25697"
   inkscape:version="0.92.1 r15371"
   sodipodi:docname="Mini2_ElectricWarning_Tag.svg">
  <defs
     id="defs25691" />
  <sodipodi:namedview
     id="base"
     pagecolor="#ffffff"
     bordercolor="#666666"
     borderopacity="1.0"
     inkscape:pageopacity="0.0"
     inkscape:pageshadow="2"
     inkscape:zoom="2.3351562"
     inkscape:cx="77.426236"
     inkscape:cy="100.60231"
     inkscape:document-units="in"
     inkscape:current-layer="layer1"
     showgrid="false"
     units="in"
     inkscape:window-width="1920"
     inkscape:window-height="971"
     inkscape:window-x="0"
     inkscape:window-y="31"
     inkscape:window-maximized="1" />
  <metadata
     id="metadata25694">
    <rdf:RDF>
      <cc:Work
         rdf:about="">
        <dc:format>image/svg+xml</dc:format>
        <dc:type
           rdf:resource="http://purl.org/dc/dcmitype/StillImage" />
        <dc:title />
      </cc:Work>
    </rdf:RDF>
  </metadata>
  <g
     inkscape:label="Layer 1"
     inkscape:groupmode="layer"
     id="layer1"
     transform="translate(0,-252.54998)">
    <flowRoot
       xml:space="preserve"
       id="flowRoot30412"
       style="font-style:normal;font-weight:normal;font-size:40px;line-height:125%;font-family:sans-serif;letter-spacing:0px;word-spacing:0px;fill:#000000;fill-opacity:1;stroke:none;stroke-width:1px;stroke-linecap:butt;stroke-linejoin:miter;stroke-opacity:1"
       transform="matrix(0.26458333,0,0,0.26458333,-2.8070688,278.25004)"><flowRegion
         id="flowRegion30414"><rect
           id="rect30416"
           width="364.85782"
           height="90.786217"
           x="-14.560054"
           y="-96.481766" /></flowRegion><flowPara
         id="flowPara30418"
         style="font-style:normal;font-variant:normal;font-weight:normal;font-stretch:normal;font-size:16px;font-family:titillium;-inkscape-font-specification:titillium;text-align:center;text-anchor:middle;fill:#666666">Mini 2 Electric Shock Warning</flowPara></flowRoot>    <rect
       style="opacity:1;fill:#000000;fill-opacity:1;fill-rule:nonzero;stroke:none;stroke-width:0.59713715;stroke-linecap:butt;stroke-linejoin:miter;stroke-miterlimit:10;stroke-dasharray:none;stroke-dashoffset:0;stroke-opacity:1;paint-order:stroke markers fill"
       id="rect10427"
       width="12.7"
       height="57.150002"
       x="272.34079"
       y="-70.167511"
       ry="1.1363083"
       transform="rotate(90)" />
    <g
       id="g4568">
      <path
         inkscape:connector-curvature="0"
         id="path30368"
         d="M 76.5175,272.69143 H 71.45495"
         style="opacity:1;fill:#b3b3b3;fill-opacity:1;fill-rule:nonzero;stroke:#000000;stroke-width:0.4064;stroke-linecap:butt;stroke-linejoin:miter;stroke-miterlimit:10;stroke-dasharray:none;stroke-dashoffset:0;stroke-opacity:1;paint-order:stroke markers fill" />
      <path
         style="opacity:1;fill:#b3b3b3;fill-opacity:1;fill-rule:nonzero;stroke:#000000;stroke-width:0.4064;stroke-linecap:butt;stroke-linejoin:miter;stroke-miterlimit:10;stroke-dasharray:none;stroke-dashoffset:0;stroke-opacity:1;paint-order:stroke markers fill"
         d="M 76.50005,285.25786 H 71.4375"
         id="path30370-3"
         inkscape:connector-curvature="0" />
    </g>
    <path
       inkscape:connector-curvature="0"
       id="path30390"
       d="M 6.76424,285.23748 H 11.7475"
       style="opacity:1;fill:#b3b3b3;fill-opacity:1;fill-rule:nonzero;stroke:#000000;stroke-width:0.4064;stroke-linecap:butt;stroke-linejoin:miter;stroke-miterlimit:10;stroke-dasharray:none;stroke-dashoffset:0;stroke-opacity:1;paint-order:stroke markers fill" />
    <g
       id="g4564">
      <path
         inkscape:connector-curvature="0"
         id="path30368-3"
         d="m 70.36543,291.35778 v -5.04697"
         style="opacity:1;fill:#b3b3b3;fill-opacity:1;fill-rule:nonzero;stroke:#000000;stroke-width:0.4064;stroke-linecap:butt;stroke-linejoin:miter;stroke-miterlimit:10;stroke-dasharray:none;stroke-dashoffset:0;stroke-opacity:1;paint-order:stroke markers fill" />
      <path
         inkscape:connector-curvature="0"
         id="path30392"
         d="m 13.24076,291.39081 v -5.04697"
         style="opacity:1;fill:#b3b3b3;fill-opacity:1;fill-rule:nonzero;stroke:#000000;stroke-width:0.4064;stroke-linecap:butt;stroke-linejoin:miter;stroke-miterlimit:10;stroke-dasharray:none;stroke-dashoffset:0;stroke-opacity:1;paint-order:stroke markers fill" />
    </g>
    <g
       id="g4536">
      <path
         style="opacity:1;fill:#b3b3b3;fill-opacity:1;fill-rule:nonzero;stroke:#000000;stroke-width:0.4064;stroke-linecap:butt;stroke-linejoin:miter;stroke-miterlimit:10;stroke-dasharray:none;stroke-dashoffset:0;stroke-opacity:1;paint-order:stroke markers fill"
         d="m 70.43356,266.11966 v 4.95115"
         id="path30370"
         inkscape:connector-curvature="0" />
      <path
         style="opacity:1;fill:#b3b3b3;fill-opacity:1;fill-rule:nonzero;stroke:#000000;stroke-width:0.4064;stroke-linecap:butt;stroke-linejoin:miter;stroke-miterlimit:10;stroke-dasharray:none;stroke-dashoffset:0;stroke-opacity:1;paint-order:stroke markers fill"
         d="m 13.21355,265.99081 v 4.95115"
         id="path30390-8"
         inkscape:connector-curvature="0" />
    </g>
    <path
       style="opacity:1;fill:#b3b3b3;fill-opacity:1;fill-rule:nonzero;stroke:#000000;stroke-width:0.4064;stroke-linecap:butt;stroke-linejoin:miter;stroke-miterlimit:10;stroke-dasharray:none;stroke-dashoffset:0;stroke-opacity:1;paint-order:stroke markers fill"
       d="m 6.6675,272.53748 h 5.08"
       id="path30392-9"
       inkscape:connector-curvature="0" />
    <g
       id="g4896"
       transform="translate(2.0657311,0.00817041)">
      <text
         id="text4605"
         y="277.98856"
         x="52.200619"
         style="font-style:normal;font-variant:normal;font-weight:normal;font-stretch:normal;font-size:2.65047264px;line-height:1;font-family:sans-serif;font-variant-ligatures:normal;font-variant-position:normal;font-variant-caps:normal;font-variant-numeric:normal;font-variant-alternates:normal;font-feature-settings:normal;text-indent:0;text-align:start;text-decoration:none;text-decoration-line:none;text-decoration-style:solid;text-decoration-color:#000000;letter-spacing:0px;word-spacing:0px;text-transform:none;writing-mode:lr-tb;direction:ltr;text-orientation:mixed;dominant-baseline:auto;baseline-shift:baseline;text-anchor:start;white-space:normal;shape-padding:0;opacity:1;vector-effect:none;fill:#b3b3b3;fill-opacity:1;stroke:none;stroke-width:0.06626181;stroke-linecap:butt;stroke-linejoin:miter;stroke-miterlimit:4;stroke-dasharray:none;stroke-dashoffset:0;stroke-opacity:1"
         xml:space="preserve"><tspan
           style="font-style:normal;font-variant:normal;font-weight:600;font-stretch:normal;font-size:2.82222223px;font-family:titillium;-inkscape-font-specification:'titillium Semi-Bold';text-align:end;text-anchor:end;fill:#b3b3b3;fill-opacity:1;stroke:none;stroke-width:0.06626181;stroke-opacity:1"
           y="277.98856"
           x="52.200615"
           id="tspan4603"
           sodipodi:role="line">CAUTION: Risk of electric shock.</tspan><tspan
           id="tspan4722"
           style="font-style:normal;font-variant:normal;font-weight:600;font-stretch:normal;font-size:2.82222223px;font-family:titillium;-inkscape-font-specification:'titillium Semi-Bold';text-align:end;text-anchor:end;fill:#b3b3b3;fill-opacity:1;stroke:none;stroke-width:0.06626181;stroke-opacity:1"
           y="280.81079"
           x="52.200619"
           sodipodi:role="line">Do not open.</tspan></text>
      <g
         transform="matrix(1.0596515,0,0,1.0596515,-3.2000844,-16.74044)"
         id="g4881">
        <g
           id="g4682"
           transform="matrix(1.0115357,0,0,1.0115357,-24.291356,4.887046)">
          <path
             style="fill:#b3b3b3;fill-opacity:1;stroke:none;stroke-width:0.00835665;stroke-opacity:0.7"
             id="sign_border"
             d="m 82.042649,272.40534 -2.37161,-4.10813 c -0.0243,-0.0418 -0.0685,-0.0668 -0.11616,-0.0668 -0.0476,0 -0.0919,0.0259 -0.11616,0.0668 l -2.371617,4.10813 c -0.02424,0.0418 -0.02424,0.0928 0,0.13371 0.02424,0.0418 0.06852,0.0668 0.116158,0.0668 h 4.743229 c 0.0476,0 0.0919,-0.0259 0.11616,-0.0668 0.0243,-0.0418 0.0243,-0.0928 0,-0.13371 z"
             inkscape:connector-curvature="0" />
          <polygon
             style="overflow:visible;fill:#000000;fill-opacity:1;stroke:none"
             id="polygon7"
             transform="matrix(0.00835665,0,0,0.00832251,77.049762,268.24735)"
             points="299.875,48.2 555.875,491.5 43.875,491.5 " />
          <path
             style="fill:#b3b3b3;fill-opacity:1;stroke:none;stroke-width:0.00532983;stroke-linecap:square;stroke-miterlimit:4;stroke-dasharray:none;stroke-dashoffset:0;stroke-opacity:0.4"
             id="path1995"
             d="m 79.872359,271.86242 a 0.3166511,0.31665117 0 1 1 -0.6333,0 0.3166511,0.31665117 0 1 1 0.6333,0 z"
             inkscape:connector-curvature="0" />
          <path
             style="fill:#b3b3b3;fill-opacity:1;stroke:none;stroke-width:0.00740254;stroke-linecap:square;stroke-miterlimit:4;stroke-dashoffset:0;stroke-opacity:1"
             id="rect1997"
             d="m 79.555709,269.6393 c -0.17254,0 -0.31143,0.14183 -0.31143,0.31802 l 0.0921,1.11405 c 0.0176,0.14411 0.0326,0.22576 0.0921,0.26415 0.0388,0.0177 0.0819,0.0278 0.12726,0.0278 0.0452,0 0.088,-0.01 0.12672,-0.0275 0.0598,-0.0383 0.075,-0.12 0.0926,-0.26443 l 0.0921,-1.11405 c 0,-0.17619 -0.13888,-0.31803 -0.31143,-0.31803 z"
             inkscape:connector-curvature="0" />
        </g>
        <g
           id="g4676"
           transform="matrix(1.0115357,0,0,1.0115357,-24.291356,4.829096)">
          <path
             style="fill:#b3b3b3;fill-opacity:1;stroke:none;stroke-width:0.00835629"
             d="m 87.653015,272.4626 -2.37151,-4.10795 c -0.0242,-0.0418 -0.0685,-0.0669 -0.11615,-0.0669 -0.0476,0 -0.0919,0.0259 -0.11615,0.0669 l -2.37152,4.10795 c -0.0242,0.0418 -0.0242,0.0928 0,0.1337 0.0243,0.0418 0.0685,0.0668 0.11616,0.0668 h 4.74303 c 0.0476,0 0.0919,-0.0259 0.11614,-0.0668 0.0243,-0.0418 0.0243,-0.0928 0,-0.1337 z"
             id="sign_border-3"
             inkscape:connector-curvature="0" />
          <polygon
             points="299.875,48.2 555.875,491.5 43.875,491.5 "
             id="polygon7-6"
             style="overflow:visible;fill:#000000;fill-opacity:1;stroke:none"
             transform="matrix(0.00835629,0,0,0.00832214,82.660355,268.30479)" />
          <path
             inkscape:connector-curvature="0"
             sodipodi:nodetypes="cccccccccccc"
             id="path1933"
             d="m 85.086675,269.69676 -0.42208,1.43678 0.61735,-0.31832 -0.13209,0.96702 -0.12621,-0.18434 0.0973,0.60636 0.35395,-0.51124 -0.17926,0.11146 0.37219,-1.37028 -0.66559,0.36655 0.48713,-1.10448 z"
             style="fill:#b3b3b3;fill-opacity:1;fill-rule:evenodd;stroke:none;stroke-width:0.00875957px;stroke-linecap:butt;stroke-linejoin:miter;stroke-opacity:1" />
        </g>
      </g>
    </g>
    <flowRoot
       xml:space="preserve"
       id="flowRoot30412-3"
       style="font-style:normal;font-weight:normal;font-size:40px;line-height:125%;font-family:sans-serif;letter-spacing:0px;word-spacing:0px;fill:#000000;fill-opacity:1;stroke:none;stroke-width:1px;stroke-linecap:butt;stroke-linejoin:miter;stroke-opacity:1"
       transform="matrix(0.15949641,0,0,0.15949641,15.045417,299.46622)"><flowRegion
         id="flowRegion30414-6"><rect
           id="rect30416-7"
           width="364.85782"
           height="90.786217"
           x="-14.560054"
           y="-96.481766" /></flowRegion><flowPara
         id="flowPara30418-5"
         style="font-style:normal;font-variant:normal;font-weight:normal;font-stretch:normal;font-size:16px;font-family:titillium;-inkscape-font-specification:titillium;text-align:center;text-anchor:middle;fill:#666666">2.25&quot;</flowPara></flowRoot>    <flowRoot
       xml:space="preserve"
       id="flowRoot30412-3-3"
       style="font-style:normal;font-weight:normal;font-size:40px;line-height:125%;font-family:sans-serif;letter-spacing:0px;word-spacing:0px;fill:#000000;fill-opacity:1;stroke:none;stroke-width:1px;stroke-linecap:butt;stroke-linejoin:miter;stroke-opacity:1"
       transform="matrix(0,0.15949641,-0.15949641,0,63.362089,252.19651)"><flowRegion
         id="flowRegion30414-6-5"><rect
           id="rect30416-7-6"
           width="364.85782"
           height="90.786217"
           x="-14.560054"
           y="-96.481766" /></flowRegion><flowPara
         id="flowPara30418-5-2"
         style="font-style:normal;font-variant:normal;font-weight:normal;font-stretch:normal;font-size:16px;font-family:titillium;-inkscape-font-specification:titillium;text-align:center;text-anchor:middle;fill:#666666">0.5&quot;</flowPara></flowRoot>    <path
       style="opacity:1;vector-effect:none;fill:none;fill-opacity:1;stroke:#000000;stroke-width:0.4064;stroke-linecap:butt;stroke-linejoin:miter;stroke-miterlimit:4;stroke-dasharray:none;stroke-dashoffset:0;stroke-opacity:1"
       d="m 73.9775,272.48823 v 3.39913"
       id="path4570"
       inkscape:connector-curvature="0" />
    <path
       inkscape:connector-curvature="0"
       id="path4572"
       d="m 73.9775,282.06193 v 3.39913"
       style="opacity:1;vector-effect:none;fill:none;fill-opacity:1;stroke:#000000;stroke-width:0.4064;stroke-linecap:butt;stroke-linejoin:miter;stroke-miterlimit:4;stroke-dasharray:none;stroke-dashoffset:0;stroke-opacity:1" />
    <path
       style="opacity:1;vector-effect:none;fill:none;fill-opacity:1;stroke:#000000;stroke-width:0.4064;stroke-linecap:butt;stroke-linejoin:miter;stroke-miterlimit:4;stroke-dasharray:none;stroke-dashoffset:0;stroke-opacity:1"
       d="M 13.243654,288.7478 H 38.080317"
       id="path4574"
       inkscape:connector-curvature="0" />
    <path
       inkscape:connector-curvature="0"
       id="path4591"
       d="M 45.525873,288.7478 H 70.362536"
       style="opacity:1;vector-effect:none;fill:none;fill-opacity:1;stroke:#000000;stroke-width:0.4064;stroke-linecap:butt;stroke-linejoin:miter;stroke-miterlimit:4;stroke-dasharray:none;stroke-dashoffset:0;stroke-opacity:1" />
  </g>
</svg>
