<?xml version="1.0" encoding="UTF-8" standalone="no"?>
<!-- Created with Inkscape (http://www.inkscape.org/) -->

<svg
   xmlns:dc="http://purl.org/dc/elements/1.1/"
   xmlns:cc="http://creativecommons.org/ns#"
   xmlns:rdf="http://www.w3.org/1999/02/22-rdf-syntax-ns#"
   xmlns:svg="http://www.w3.org/2000/svg"
   xmlns="http://www.w3.org/2000/svg"
   xmlns:sodipodi="http://sodipodi.sourceforge.net/DTD/sodipodi-0.dtd"
   xmlns:inkscape="http://www.inkscape.org/namespaces/inkscape"
   width="1.625in"
   height="1.625in"
   viewBox="0 0 41.275 41.274999"
   version="1.1"
   id="svg8"
   inkscape:version="0.92.1 r15371"
   sodipodi:docname="hotSymbol_Back_EngFr_06_Bleed.svg">
  <defs
     id="defs2" />
  <sodipodi:namedview
     id="base"
     pagecolor="#ffffff"
     bordercolor="#666666"
     borderopacity="1.0"
     inkscape:pageopacity="0.0"
     inkscape:pageshadow="2"
     inkscape:zoom="2.8284271"
     inkscape:cx="91.38111"
     inkscape:cy="86.142898"
     inkscape:document-units="in"
     inkscape:current-layer="layer1"
     showgrid="false"
     showguides="true"
     inkscape:guide-bbox="true"
     inkscape:window-width="1920"
     inkscape:window-height="971"
     inkscape:window-x="0"
     inkscape:window-y="31"
     inkscape:window-maximized="1"
     units="in"
     inkscape:measure-start="0,0"
     inkscape:measure-end="0,0">
    <sodipodi:guide
       position="22.824817,28.636259"
       orientation="0,1"
       id="guide4563"
       inkscape:locked="false" />
    <sodipodi:guide
       position="25.527936,12.703091"
       orientation="0,1"
       id="guide4565"
       inkscape:locked="false" />
    <sodipodi:guide
       position="12.703091,18.242937"
       orientation="1,0"
       id="guide4567"
       inkscape:locked="false" />
    <sodipodi:guide
       position="31.737434,11.444957"
       orientation="1,0"
       id="guide4569"
       inkscape:locked="false" />
    <sodipodi:guide
       position="15.870866,22.208463"
       orientation="1,0"
       id="guide4571"
       inkscape:locked="false" />
    <sodipodi:guide
       position="28.571808,10.755013"
       orientation="1,0"
       id="guide4573"
       inkscape:locked="false" />
    <sodipodi:guide
       position="14.4526,25.444059"
       orientation="0,1"
       id="guide4575"
       inkscape:locked="false" />
    <sodipodi:guide
       position="21.712951,15.909302"
       orientation="0,1"
       id="guide4577"
       inkscape:locked="false" />
    <sodipodi:guide
       position="22.255767,29.214851"
       orientation="1,0"
       id="guide4705"
       inkscape:locked="false" />
    <sodipodi:guide
       position="12.703091,17.405274"
       orientation="1,0"
       id="guide4537"
       inkscape:locked="false" />
    <sodipodi:guide
       position="28.571808,35.652603"
       orientation="1,0"
       id="guide4608"
       inkscape:locked="false" />
    <sodipodi:guide
       position="37.107813,25.444059"
       orientation="0,1"
       id="guide4610"
       inkscape:locked="false" />
  </sodipodi:namedview>
  <metadata
     id="metadata5">
    <rdf:RDF>
      <cc:Work
         rdf:about="">
        <dc:format>image/svg+xml</dc:format>
        <dc:type
           rdf:resource="http://purl.org/dc/dcmitype/StillImage" />
        <dc:title></dc:title>
      </cc:Work>
    </rdf:RDF>
  </metadata>
  <g
     inkscape:groupmode="layer"
     id="layer2"
     inkscape:label="Background"
     transform="translate(0,14.275002)" />
  <g
     inkscape:label="Copy"
     inkscape:groupmode="layer"
     id="layer1"
     transform="translate(0,-255.72499)"
     style="display:inline">
    <path
       style="color:#000000;font-style:normal;font-variant:normal;font-weight:normal;font-stretch:normal;font-size:medium;line-height:normal;font-family:sans-serif;font-variant-ligatures:normal;font-variant-position:normal;font-variant-caps:normal;font-variant-numeric:normal;font-variant-alternates:normal;font-feature-settings:normal;text-indent:0;text-align:start;text-decoration:none;text-decoration-line:none;text-decoration-style:solid;text-decoration-color:#000000;letter-spacing:normal;word-spacing:normal;text-transform:none;writing-mode:lr-tb;direction:ltr;text-orientation:mixed;dominant-baseline:auto;baseline-shift:baseline;text-anchor:start;white-space:normal;shape-padding:0;clip-rule:nonzero;display:inline;overflow:visible;visibility:visible;opacity:1;isolation:auto;mix-blend-mode:normal;color-interpolation:sRGB;color-interpolation-filters:linearRGB;solid-color:#000000;solid-opacity:1;vector-effect:none;fill:#000000;fill-opacity:1;fill-rule:nonzero;stroke:none;stroke-width:6.3499999;stroke-linecap:butt;stroke-linejoin:round;stroke-miterlimit:4;stroke-dasharray:none;stroke-dashoffset:0;stroke-opacity:1;paint-order:markers fill stroke;color-rendering:auto;image-rendering:auto;shape-rendering:auto;text-rendering:auto;enable-background:accumulate"
       d="m 15.871094,268.38086 c -1.754041,-2.6e-4 -3.176038,1.42174 -3.175782,3.17578 v 9.5332 c -2.56e-4,1.75404 1.421741,3.17604 3.175782,3.17578 h 12.701172 c 1.753278,-8.2e-4 3.174084,-1.4225 3.173828,-3.17578 v -9.5332 c 2.56e-4,-1.75328 -1.42055,-3.17496 -3.173828,-3.17578 z"
       id="rect4713"
       inkscape:connector-curvature="0"
       sodipodi:nodetypes="ccccccccc" />
    <text
       xml:space="preserve"
       style="font-style:normal;font-weight:normal;font-size:4.30931997px;line-height:0%;font-family:sans-serif;letter-spacing:0px;word-spacing:0px;fill:#b3b3b3;fill-opacity:1;stroke:none;stroke-width:0.35911003px;stroke-linecap:butt;stroke-linejoin:miter;stroke-opacity:1"
       x="15.739833"
       y="279.69223"
       id="text4747"><tspan
         sodipodi:role="line"
         x="15.739833"
         y="279.69223"
         style="font-style:normal;font-variant:normal;font-weight:bold;font-stretch:normal;font-size:1.97600663px;line-height:1.28999996;font-family:Titillium;-inkscape-font-specification:'Titillium Bold';fill:#b3b3b3;fill-opacity:1;stroke-width:0.35911003px"
         id="tspan4525">CAUTION: HOT!</tspan></text>
    <text
       id="text4549"
       y="281.0853"
       x="15.808125"
       style="font-style:normal;font-weight:normal;font-size:3.15283823px;line-height:0%;font-family:sans-serif;letter-spacing:0px;word-spacing:0px;fill:#b3b3b3;fill-opacity:1;stroke:none;stroke-width:0.26273653px;stroke-linecap:butt;stroke-linejoin:miter;stroke-opacity:1"
       xml:space="preserve"><tspan
         id="tspan4547"
         style="font-style:normal;font-variant:normal;font-weight:bold;font-stretch:normal;font-size:1.44571066px;line-height:1.28999996;font-family:Titillium;-inkscape-font-specification:'Titillium Bold';fill:#b3b3b3;fill-opacity:1;stroke-width:0.26273653px"
         y="281.0853"
         x="15.808125"
         sodipodi:role="line">ATTENTION: CHAUD!</tspan></text>
    <g
       id="g4642"
       transform="translate(-2.6458334)">
      <path
         sodipodi:nodetypes="cc"
         inkscape:connector-curvature="0"
         id="path4591"
         d="M 11.644758,284.2969 H 8.6447577"
         style="opacity:1;vector-effect:none;fill:none;fill-opacity:1;stroke:#000000;stroke-width:0.5;stroke-linecap:butt;stroke-linejoin:miter;stroke-miterlimit:4;stroke-dasharray:none;stroke-dashoffset:0;stroke-opacity:1" />
      <path
         style="opacity:1;vector-effect:none;fill:none;fill-opacity:1;stroke:#000000;stroke-width:0.5;stroke-linecap:butt;stroke-linejoin:miter;stroke-miterlimit:4;stroke-dasharray:none;stroke-dashoffset:0;stroke-opacity:1"
         d="M 11.644758,268.36373 H 8.6447577"
         id="path4593"
         inkscape:connector-curvature="0"
         sodipodi:nodetypes="cc" />
    </g>
    <g
       id="g4715"
       transform="translate(2.0000001e-6,1.5885232)">
      <path
         style="opacity:1;vector-effect:none;fill:none;fill-opacity:1;stroke:#000000;stroke-width:0.5;stroke-linecap:butt;stroke-linejoin:miter;stroke-miterlimit:4;stroke-dasharray:none;stroke-dashoffset:0;stroke-opacity:1"
         d="m 12.703089,262.9396 2e-6,-3"
         id="path4597"
         inkscape:connector-curvature="0"
         sodipodi:nodetypes="cc" />
      <path
         sodipodi:nodetypes="cc"
         inkscape:connector-curvature="0"
         id="path4599"
         d="m 31.737434,262.9396 2e-6,-3"
         style="opacity:1;vector-effect:none;fill:none;fill-opacity:1;stroke:#000000;stroke-width:0.5;stroke-linecap:butt;stroke-linejoin:miter;stroke-miterlimit:4;stroke-dasharray:none;stroke-dashoffset:0;stroke-opacity:1" />
    </g>
    <g
       id="g4863"
       transform="translate(0,2.6458258)">
      <text
         id="text4518"
         y="287.58817"
         x="19.808201"
         style="font-style:normal;font-variant:normal;font-weight:normal;font-stretch:normal;font-size:2.14936781px;line-height:1;font-family:sans-serif;font-variant-ligatures:normal;font-variant-position:normal;font-variant-caps:normal;font-variant-numeric:normal;font-variant-alternates:normal;font-feature-settings:normal;text-indent:0;text-align:start;text-decoration:none;text-decoration-line:none;text-decoration-style:solid;text-decoration-color:#000000;letter-spacing:0px;word-spacing:0px;text-transform:none;writing-mode:lr-tb;direction:ltr;text-orientation:mixed;dominant-baseline:auto;baseline-shift:baseline;text-anchor:start;white-space:normal;shape-padding:0;opacity:1;vector-effect:none;fill:#000000;fill-opacity:1;stroke:none;stroke-width:0.05373419;stroke-linecap:butt;stroke-linejoin:miter;stroke-miterlimit:4;stroke-dasharray:none;stroke-dashoffset:0;stroke-opacity:1"
         xml:space="preserve"><tspan
           id="tspan1197"
           style="font-style:normal;font-variant:normal;font-weight:normal;font-stretch:normal;font-family:Titillium;-inkscape-font-specification:Titillium;stroke-width:0.05373419"
           y="287.58817"
           x="19.808201"
           sodipodi:role="line">0.75&quot;</tspan></text>
      <g
         id="g4757">
        <path
           style="opacity:1;vector-effect:none;fill:none;fill-opacity:1;stroke:#000000;stroke-width:0.5;stroke-linecap:butt;stroke-linejoin:miter;stroke-miterlimit:4;stroke-dasharray:none;stroke-dashoffset:0;stroke-opacity:1"
           d="m 12.703089,288.35524 2e-6,-3"
           id="path874"
           inkscape:connector-curvature="0"
           sodipodi:nodetypes="cc" />
        <path
           sodipodi:nodetypes="cc"
           inkscape:connector-curvature="0"
           id="path876"
           d="m 31.737432,288.35524 2e-6,-3"
           style="opacity:1;vector-effect:none;fill:none;fill-opacity:1;stroke:#000000;stroke-width:0.5;stroke-linecap:butt;stroke-linejoin:miter;stroke-miterlimit:4;stroke-dasharray:none;stroke-dashoffset:0;stroke-opacity:1" />
      </g>
      <path
         sodipodi:nodetypes="cc"
         inkscape:connector-curvature="0"
         id="path4603"
         d="m 12.703091,286.85524 h 6.006572"
         style="opacity:1;vector-effect:none;fill:none;fill-opacity:1;stroke:#000000;stroke-width:0.4064;stroke-linecap:butt;stroke-linejoin:miter;stroke-miterlimit:4;stroke-dasharray:none;stroke-dashoffset:0;stroke-opacity:1" />
      <path
         style="opacity:1;vector-effect:none;fill:none;fill-opacity:1;stroke:#000000;stroke-width:0.4064;stroke-linecap:butt;stroke-linejoin:miter;stroke-miterlimit:4;stroke-dasharray:none;stroke-dashoffset:0;stroke-opacity:1"
         d="m 25.730862,286.85524 h 6.006572"
         id="path4759"
         inkscape:connector-curvature="0"
         sodipodi:nodetypes="cc" />
    </g>
    <text
       xml:space="preserve"
       style="font-style:normal;font-variant:normal;font-weight:normal;font-stretch:normal;font-size:3.12616372px;line-height:1;font-family:sans-serif;font-variant-ligatures:normal;font-variant-position:normal;font-variant-caps:normal;font-variant-numeric:normal;font-variant-alternates:normal;font-feature-settings:normal;text-indent:0;text-align:start;text-decoration:none;text-decoration-line:none;text-decoration-style:solid;text-decoration-color:#000000;letter-spacing:0px;word-spacing:0px;text-transform:none;writing-mode:lr-tb;direction:ltr;text-orientation:mixed;dominant-baseline:auto;baseline-shift:baseline;text-anchor:start;white-space:normal;shape-padding:0;display:inline;opacity:1;vector-effect:none;fill:#b3b3b3;fill-opacity:1;stroke:none;stroke-width:0.07815411;stroke-linecap:butt;stroke-linejoin:miter;stroke-miterlimit:4;stroke-dasharray:none;stroke-dashoffset:0;stroke-opacity:1"
       x="256.31131"
       y="21.230539"
       id="text4517"
       transform="rotate(90)"><tspan
         sodipodi:role="line"
         id="tspan4515"
         x="256.31131"
         y="21.230539"
         style="font-style:normal;font-variant:normal;font-weight:600;font-stretch:normal;font-size:2.82222223px;font-family:Titillium;-inkscape-font-specification:'Titillium Semi-Bold';fill:#b3b3b3;fill-opacity:1;stroke-width:0.07815411">0.50mm</tspan></text>
    <path
       inkscape:connector-curvature="0"
       d="m 25.802961,277.56921 -3.38844,-5.86947 c -0.03462,-0.0597 -0.0979,-0.0955 -0.165958,-0.0955 -0.06805,0 -0.131337,0.0371 -0.165959,0.0955 l -3.38844,5.86947 c -0.03462,0.0598 -0.03462,0.13254 0,0.19104 0.03463,0.0597 0.09791,0.0955 0.165959,0.0955 h 6.776879 c 0.06805,0 0.131334,-0.0371 0.165959,-0.0955 0.03462,-0.0597 0.03462,-0.13253 0,-0.19104 z"
       id="sign_border-2-3"
       style="display:inline;fill:#b3b3b3;fill-opacity:1;stroke-width:0.01193952" />
    <path
       id="sign_bg-3-6"
       d="m 22.248563,272.17972 3.056519,5.29279 h -6.113039 v 0 z"
       style="display:inline;fill:#000000;fill-opacity:1;stroke-width:0.01193952"
       inkscape:connector-curvature="0" />
    <path
       id="rect2820-7"
       d="M 23.774219,277.15379 H 20.722906"
       style="display:inline;fill:none;fill-opacity:1;stroke:#b3b3b3;stroke-width:0.22801673;stroke-linecap:butt;stroke-miterlimit:4;stroke-dasharray:none;stroke-dashoffset:0;stroke-opacity:1"
       inkscape:connector-curvature="0"
       sodipodi:nodetypes="cc" />
    <path
       style="color:#000000;font-style:normal;font-variant:normal;font-weight:normal;font-stretch:normal;font-size:medium;line-height:normal;font-family:sans-serif;text-indent:0;text-align:start;text-decoration:none;text-decoration-line:none;text-decoration-style:solid;text-decoration-color:#000000;letter-spacing:normal;word-spacing:normal;text-transform:none;writing-mode:lr-tb;direction:ltr;baseline-shift:baseline;text-anchor:start;white-space:normal;clip-rule:nonzero;display:inline;overflow:visible;visibility:visible;opacity:1;isolation:auto;mix-blend-mode:normal;color-interpolation:sRGB;color-interpolation-filters:linearRGB;solid-color:#000000;solid-opacity:1;fill:#b3b3b3;fill-opacity:1;fill-rule:nonzero;stroke:none;stroke-width:0.1692217;stroke-linecap:butt;stroke-linejoin:miter;stroke-miterlimit:4;stroke-dasharray:none;stroke-dashoffset:0;stroke-opacity:1;color-rendering:auto;image-rendering:auto;shape-rendering:auto;text-rendering:auto;enable-background:accumulate"
       d="m 22.180503,274.3009 c -0.182759,0.25472 -0.234376,0.49091 -0.211234,0.70447 0.02313,0.21357 0.114924,0.40125 0.201357,0.5806 0.08644,0.17934 0.167576,0.35042 0.188191,0.52708 0.02062,0.17664 -0.01326,0.36174 -0.173471,0.5908 l 0.138673,0.097 c 0.17925,-0.25626 0.227851,-0.49347 0.202882,-0.7074 -0.02497,-0.21394 -0.117473,-0.40172 -0.203834,-0.58093 -0.08636,-0.17919 -0.166517,-0.34972 -0.185551,-0.52535 -0.01904,-0.17566 0.01695,-0.35969 0.180464,-0.58759 z"
       id="path4600-5"
       inkscape:connector-curvature="0" />
    <g
       style="display:inline"
       id="g4538-3"
       transform="matrix(0.89770367,0,0,0.89770367,2.2913226,28.409696)">
      <path
         style="color:#000000;font-style:normal;font-variant:normal;font-weight:normal;font-stretch:normal;font-size:medium;line-height:normal;font-family:sans-serif;text-indent:0;text-align:start;text-decoration:none;text-decoration-line:none;text-decoration-style:solid;text-decoration-color:#000000;letter-spacing:normal;word-spacing:normal;text-transform:none;writing-mode:lr-tb;direction:ltr;baseline-shift:baseline;text-anchor:start;white-space:normal;clip-rule:nonzero;display:inline;overflow:visible;visibility:visible;opacity:1;isolation:auto;mix-blend-mode:normal;color-interpolation:sRGB;color-interpolation-filters:linearRGB;solid-color:#000000;solid-opacity:1;fill:none;fill-opacity:1;fill-rule:nonzero;stroke:#b3b3b3;stroke-width:0.25400001;stroke-linecap:butt;stroke-linejoin:miter;stroke-miterlimit:4;stroke-dasharray:none;stroke-dashoffset:0;stroke-opacity:1;color-rendering:auto;image-rendering:auto;shape-rendering:auto;text-rendering:auto;enable-background:accumulate"
         d="m 22.249768,273.9671 c -0.203584,0.28375 -0.261084,0.54685 -0.235304,0.78475 0.02577,0.23791 0.128017,0.44697 0.224303,0.64676 0.09629,0.19978 0.18667,0.39035 0.209635,0.58714 0.02297,0.19677 -0.01477,0.40296 -0.193239,0.65812"
         id="path4529-5"
         inkscape:connector-curvature="0"
         sodipodi:nodetypes="ccccc" />
      <path
         sodipodi:nodetypes="ccccc"
         inkscape:connector-curvature="0"
         id="path4531-6"
         d="m 21.38753,273.9671 c -0.203584,0.28375 -0.261084,0.54685 -0.235304,0.78475 0.02577,0.23791 0.128017,0.44697 0.224303,0.64676 0.09629,0.19978 0.18667,0.39035 0.209635,0.58714 0.02297,0.19677 -0.01477,0.40296 -0.193239,0.65812"
         style="color:#000000;font-style:normal;font-variant:normal;font-weight:normal;font-stretch:normal;font-size:medium;line-height:normal;font-family:sans-serif;text-indent:0;text-align:start;text-decoration:none;text-decoration-line:none;text-decoration-style:solid;text-decoration-color:#000000;letter-spacing:normal;word-spacing:normal;text-transform:none;writing-mode:lr-tb;direction:ltr;baseline-shift:baseline;text-anchor:start;white-space:normal;clip-rule:nonzero;display:inline;overflow:visible;visibility:visible;opacity:1;isolation:auto;mix-blend-mode:normal;color-interpolation:sRGB;color-interpolation-filters:linearRGB;solid-color:#000000;solid-opacity:1;fill:none;fill-opacity:1;fill-rule:nonzero;stroke:#b3b3b3;stroke-width:0.25400001;stroke-linecap:butt;stroke-linejoin:miter;stroke-miterlimit:4;stroke-dasharray:none;stroke-dashoffset:0;stroke-opacity:1;color-rendering:auto;image-rendering:auto;shape-rendering:auto;text-rendering:auto;enable-background:accumulate" />
      <path
         sodipodi:nodetypes="ccccc"
         inkscape:connector-curvature="0"
         id="path4533-2"
         d="m 23.112002,273.9671 c -0.203584,0.28375 -0.261084,0.54685 -0.235304,0.78475 0.02577,0.23791 0.128017,0.44697 0.224303,0.64676 0.09629,0.19978 0.18667,0.39035 0.209635,0.58714 0.02297,0.19677 -0.01477,0.40296 -0.193239,0.65812"
         style="color:#000000;font-style:normal;font-variant:normal;font-weight:normal;font-stretch:normal;font-size:medium;line-height:normal;font-family:sans-serif;text-indent:0;text-align:start;text-decoration:none;text-decoration-line:none;text-decoration-style:solid;text-decoration-color:#000000;letter-spacing:normal;word-spacing:normal;text-transform:none;writing-mode:lr-tb;direction:ltr;baseline-shift:baseline;text-anchor:start;white-space:normal;clip-rule:nonzero;display:inline;overflow:visible;visibility:visible;opacity:1;isolation:auto;mix-blend-mode:normal;color-interpolation:sRGB;color-interpolation-filters:linearRGB;solid-color:#000000;solid-opacity:1;fill:none;fill-opacity:1;fill-rule:nonzero;stroke:#b3b3b3;stroke-width:0.25400001;stroke-linecap:butt;stroke-linejoin:miter;stroke-miterlimit:4;stroke-dasharray:none;stroke-dashoffset:0;stroke-opacity:1;color-rendering:auto;image-rendering:auto;shape-rendering:auto;text-rendering:auto;enable-background:accumulate" />
    </g>
    <rect
       style="opacity:1;fill:#000000;fill-opacity:1;stroke:#00ef00;stroke-width:6.3499999;stroke-linecap:butt;stroke-linejoin:round;stroke-miterlimit:4;stroke-dasharray:none;stroke-dashoffset:0;stroke-opacity:1;paint-order:markers fill stroke"
       id="rect4606"
       width="10.183112"
       height="10.009549"
       x="58.848362"
       y="260.00934" />
    <g
       id="g4650"
       transform="translate(2.6458334)">
      <text
         transform="rotate(90)"
         xml:space="preserve"
         style="font-style:normal;font-variant:normal;font-weight:normal;font-stretch:normal;font-size:2.14936781px;line-height:1;font-family:sans-serif;font-variant-ligatures:normal;font-variant-position:normal;font-variant-caps:normal;font-variant-numeric:normal;font-variant-alternates:normal;font-feature-settings:normal;text-indent:0;text-align:start;text-decoration:none;text-decoration-line:none;text-decoration-style:solid;text-decoration-color:#000000;letter-spacing:0px;word-spacing:0px;text-transform:none;writing-mode:lr-tb;direction:ltr;text-orientation:mixed;dominant-baseline:auto;baseline-shift:baseline;text-anchor:start;white-space:normal;shape-padding:0;opacity:1;vector-effect:none;fill:#000000;fill-opacity:1;stroke:none;stroke-width:0.05373419;stroke-linecap:butt;stroke-linejoin:miter;stroke-miterlimit:4;stroke-dasharray:none;stroke-dashoffset:0;stroke-opacity:1"
         x="273.84967"
         y="-33.552086"
         id="text947"><tspan
           sodipodi:role="line"
           id="tspan945"
           x="273.84967"
           y="-33.552086"
           style="font-style:normal;font-variant:normal;font-weight:normal;font-stretch:normal;font-family:Titillium;-inkscape-font-specification:Titillium;stroke-width:0.05373419">0.62&quot;</tspan></text>
      <path
         style="opacity:1;vector-effect:none;fill:none;fill-opacity:1;stroke:#000000;stroke-width:0.5;stroke-linecap:butt;stroke-linejoin:miter;stroke-miterlimit:4;stroke-dasharray:none;stroke-dashoffset:0;stroke-opacity:1"
         d="m 35.795767,284.2969 h -3"
         id="path935"
         inkscape:connector-curvature="0"
         sodipodi:nodetypes="cc" />
      <path
         sodipodi:nodetypes="cc"
         inkscape:connector-curvature="0"
         id="path937"
         d="m 35.795767,268.36373 h -3"
         style="opacity:1;vector-effect:none;fill:none;fill-opacity:1;stroke:#000000;stroke-width:0.5;stroke-linecap:butt;stroke-linejoin:miter;stroke-miterlimit:4;stroke-dasharray:none;stroke-dashoffset:0;stroke-opacity:1" />
      <path
         sodipodi:nodetypes="cc"
         style="opacity:1;vector-effect:none;fill:none;fill-opacity:1;stroke:#000000;stroke-width:0.4064;stroke-linecap:butt;stroke-linejoin:miter;stroke-miterlimit:4;stroke-dasharray:none;stroke-dashoffset:0;stroke-opacity:1"
         d="m 34.295767,278.95935 v 5.33755"
         id="path4586"
         inkscape:connector-curvature="0" />
      <path
         inkscape:connector-curvature="0"
         id="path4617"
         d="m 34.295767,268.36373 v 5.33755"
         style="opacity:1;vector-effect:none;fill:none;fill-opacity:1;stroke:#000000;stroke-width:0.4064;stroke-linecap:butt;stroke-linejoin:miter;stroke-miterlimit:4;stroke-dasharray:none;stroke-dashoffset:0;stroke-opacity:1"
         sodipodi:nodetypes="cc" />
    </g>
    <path
       sodipodi:nodetypes="ccccccccc"
       inkscape:connector-curvature="0"
       id="path4718"
       d="m 15.871094,268.38086 c -1.754041,-2.6e-4 -3.176038,1.42174 -3.175782,3.17578 v 9.5332 c -2.56e-4,1.75404 1.421741,3.17604 3.175782,3.17578 h 12.701172 c 1.753278,-8.2e-4 3.174084,-1.4225 3.173828,-3.17578 v -9.5332 c 2.56e-4,-1.75328 -1.42055,-3.17496 -3.173828,-3.17578 z"
       style="color:#000000;font-style:normal;font-variant:normal;font-weight:normal;font-stretch:normal;font-size:medium;line-height:normal;font-family:sans-serif;font-variant-ligatures:normal;font-variant-position:normal;font-variant-caps:normal;font-variant-numeric:normal;font-variant-alternates:normal;font-feature-settings:normal;text-indent:0;text-align:start;text-decoration:none;text-decoration-line:none;text-decoration-style:solid;text-decoration-color:#000000;letter-spacing:normal;word-spacing:normal;text-transform:none;writing-mode:lr-tb;direction:ltr;text-orientation:mixed;dominant-baseline:auto;baseline-shift:baseline;text-anchor:start;white-space:normal;shape-padding:0;clip-rule:nonzero;display:inline;overflow:visible;visibility:visible;opacity:1;isolation:auto;mix-blend-mode:normal;color-interpolation:sRGB;color-interpolation-filters:linearRGB;solid-color:#000000;solid-opacity:1;vector-effect:none;fill:none;fill-opacity:1;fill-rule:nonzero;stroke:#000000;stroke-width:6.3499999;stroke-linecap:butt;stroke-linejoin:round;stroke-miterlimit:4;stroke-dasharray:none;stroke-dashoffset:0;stroke-opacity:1;paint-order:markers fill stroke;color-rendering:auto;image-rendering:auto;shape-rendering:auto;text-rendering:auto;enable-background:accumulate" />
    <path
       style="color:#000000;font-style:normal;font-variant:normal;font-weight:normal;font-stretch:normal;font-size:medium;line-height:normal;font-family:sans-serif;font-variant-ligatures:normal;font-variant-position:normal;font-variant-caps:normal;font-variant-numeric:normal;font-variant-alternates:normal;font-feature-settings:normal;text-indent:0;text-align:start;text-decoration:none;text-decoration-line:none;text-decoration-style:solid;text-decoration-color:#000000;letter-spacing:normal;word-spacing:normal;text-transform:none;writing-mode:lr-tb;direction:ltr;text-orientation:mixed;dominant-baseline:auto;baseline-shift:baseline;text-anchor:start;white-space:normal;shape-padding:0;clip-rule:nonzero;display:inline;overflow:visible;visibility:visible;opacity:1;isolation:auto;mix-blend-mode:normal;color-interpolation:sRGB;color-interpolation-filters:linearRGB;solid-color:#000000;solid-opacity:1;vector-effect:none;fill:none;fill-opacity:1;fill-rule:nonzero;stroke:#ff00f8;stroke-width:0.17638889;stroke-linecap:butt;stroke-linejoin:round;stroke-miterlimit:4;stroke-dasharray:none;stroke-dashoffset:0;stroke-opacity:1;paint-order:markers fill stroke;color-rendering:auto;image-rendering:auto;shape-rendering:auto;text-rendering:auto;enable-background:accumulate"
       d="m 15.871094,268.38086 c -1.754041,-2.6e-4 -3.176038,1.42174 -3.175782,3.17578 v 9.5332 c -2.56e-4,1.75404 1.421741,3.17604 3.175782,3.17578 h 12.701172 c 1.753278,-8.2e-4 3.174084,-1.4225 3.173828,-3.17578 v -9.5332 c 2.56e-4,-1.75328 -1.42055,-3.17496 -3.173828,-3.17578 z"
       id="path4720"
       inkscape:connector-curvature="0"
       sodipodi:nodetypes="ccccccccc" />
  </g>
</svg>
